﻿Year,County,PrecinctName,RepVotes,DemVotes,CastedBal,RegisteredVoters
2012,Cobb,Acworth 1A,1635,1226,2909,4017
2012,Cobb,Acworth 1B,1537,941,2528,3674
2012,Cobb,Acworth 1C,1218,1300,2578,3700
2012,Cobb,Addison 01,971,500,1515,1902
2012,Cobb,Austell 1A,551,1883,2462,3439
2012,Cobb,Bells Ferry 02,1172,741,1972,2592
2012,Cobb,Bells Ferry 03,2326,1123,3575,4918
2012,Cobb,Big Shanty 01,961,522,1532,2247
2012,Cobb,Big Shanty 02,1307,642,1991,2630
2012,Cobb,Baker 01,1379,1133,2574,3589
2012,Cobb,Birney 01,651,766,1445,1982
2012,Cobb,Birney 02,1154,1198,2393,3130
2012,Cobb,Bryant 01,73,1243,1333,1637
2012,Cobb,Bryant 02,114,2500,2635,4168
2012,Cobb,Blackwell 01,939,558,1539,2012
2012,Cobb,Chattahoochee 01,881,1995,2952,4554
2012,Cobb,Cheatham Hill 02,1476,530,2053,2548
2012,Cobb,Cheatham Hill 03,1745,912,2708,3323
2012,Cobb,Chalker 01,1160,976,2215,3399
2012,Cobb,Clarkdale 01,462,532,1019,1412
2012,Cobb,Clarkdale 02,1028,1956,3026,3968
2012,Cobb,Cooper 01,730,1955,2714,3808
2012,Cobb,Chestnut Ridge 01,1715,540,2313,2856
2012,Cobb,Dickerson 01,1403,601,2040,2569
2012,Cobb,Dobbins 01,357,1508,1902,2860
2012,Cobb,Dowell 01,1316,811,2172,2725
2012,Cobb,Dodgen 01,1083,379,1495,1920
2012,Cobb,Durham 01,2187,534,2757,3453
2012,Cobb,Davis 01,941,423,1399,1777
2012,Cobb,Eastside 01,1504,556,2107,2616
2012,Cobb,Eastside 02,2017,859,2934,3580
2012,Cobb,Elizabeth 01,787,913,1732,2837
2012,Cobb,Elizabeth 02,936,492,1462,1884
2012,Cobb,Elizabeth 03,935,422,1407,1757
2012,Cobb,Elizabeth 04,760,785,1577,2244
2012,Cobb,Elizabeth 05,1203,735,1987,2529
2012,Cobb,East Piedmont 01,772,640,1449,1975
2012,Cobb,Fair Oaks 01,660,1530,2221,3128
2012,Cobb,Fair Oaks 02,686,1497,2231,3395
2012,Cobb,Fair Oaks 04,487,638,1153,1802
2012,Cobb,Fair Oaks 05,306,477,806,1445
2012,Cobb,Fullers Park 01,1588,733,2366,2980
2012,Cobb,Ford 01,1640,400,2064,2665
2012,Cobb,Frey 01,1139,388,1553,1977
2012,Cobb,Garrison Mill 01,1307,585,1936,2489
2012,Cobb,Gritters 01,950,496,1490,2000
2012,Cobb,Harmony-Leland 01,840,2421,3295,4350
2012,Cobb,Harrison 01,1477,372,1891,2397
2012,Cobb,Hightower 01,1599,645,2289,2908
2012,Cobb,Hayes 01,1949,646,2640,3382
2012,Cobb,Kennesaw 1A,640,435,1105,1588
2012,Cobb,Kennesaw 2A,944,1360,2346,3553
2012,Cobb,Kennesaw 2B,1348,848,2257,3162
2012,Cobb,Kennesaw 3A,475,358,859,1333
2012,Cobb,Kennesaw 4A,842,602,1498,2104
2012,Cobb,Kennesaw 5A,1336,705,2090,2715
2012,Cobb,Kennesaw 5B,1149,937,2128,2755
2012,Cobb,Kell 01,946,408,1386,1761
2012,Cobb,Kemp 01,1046,309,1388,1743
2012,Cobb,Kemp 02,1695,811,2561,3180
2012,Cobb,Kemp 03,1128,248,1396,1712
2012,Cobb,Lassiter 01,1778,573,2399,3035
2012,Cobb,Lindley 01,1134,1743,2949,3751
2012,Cobb,Lost Mountain 01,1656,541,2226,2712
2012,Cobb,Lost Mountain 02,2322,501,2874,3632
2012,Cobb,Lost Mountain 03,2007,740,2794,3473
2012,Cobb,Lost Mountain 04,1308,392,1726,2160
2012,Cobb,Lewis 01,735,293,1047,1318
2012,Cobb,Mableton 01,1156,1696,2891,3767
2012,Cobb,Mableton 02,555,895,1473,2119
2012,Cobb,Mableton 03,959,787,1788,2366
2012,Cobb,Mableton 04,702,353,1084,1345
2012,Cobb,Mabry 01,966,287,1274,1598
2012,Cobb,Macland 01,773,1415,2229,2970
2012,Cobb,Murdock 01,1928,789,2792,3493
2012,Cobb,Mceachern 01,1017,848,1897,2433
2012,Cobb,Mccleskey 01,867,372,1275,1578
2012,Cobb,Mcclure 01,825,260,1106,1381
2012,Cobb,Marietta 1A,396,1191,1627,2421
2012,Cobb,Marietta 2A,1155,723,1916,2496
2012,Cobb,Marietta 2B,1266,1624,2924,3865
2012,Cobb,Marietta 3A,1177,1257,2497,3544
2012,Cobb,Marietta 4A,1244,321,1600,1881
2012,Cobb,Marietta 4B,802,702,1553,2316
2012,Cobb,Marietta 4C,1465,618,2115,2612
2012,Cobb,Marietta 5A,299,766,1089,1528
2012,Cobb,Marietta 5B,304,750,1072,1755
2012,Cobb,Marietta 6A,272,874,1175,2026
2012,Cobb,Marietta 6B,1092,719,1839,2379
2012,Cobb,Marietta 7A,313,1266,1607,2873
2012,Cobb,Mars Hill 01,1567,363,1960,2584
2012,Cobb,Mars Hill 02,1014,587,1642,2268
2012,Cobb,Mt Bethel 01,2163,748,2986,3786
2012,Cobb,Mt Bethel 03,1362,588,1983,2587
2012,Cobb,Mt Bethel 04,1573,564,2175,2695
2012,Cobb,North Cobb 01,825,494,1340,1776
2012,Cobb,Nickajack 01,952,1504,2504,3456
2012,Cobb,Norton Park 01,1178,1156,2415,3361
2012,Cobb,Nicholson 01,1051,543,1634,2167
2012,Cobb,Oakdale 01,1309,989,2330,3068
2012,Cobb,Oregon 01,832,324,1181,1430
2012,Cobb,Oregon 02,638,1275,1931,2590
2012,Cobb,Oregon 03,673,1106,1810,2689
2012,Cobb,Oregon 04,479,1366,1873,2527
2012,Cobb,Oregon 05,1309,1115,2461,3067
2012,Cobb,Oregon 06,619,1180,1826,2311
2012,Cobb,Pebblebrook 01,559,2294,2886,3873
2012,Cobb,Powers Ferry 01,1367,811,2243,2984
2012,Cobb,Pine Mountain 01,1624,388,2039,2467
2012,Cobb,Pine Mountain 02,1641,307,1988,2402
2012,Cobb,Post Oak 01,1783,601,2431,3131
2012,Cobb,Pope 01,1444,632,2132,2733
2012,Cobb,Palmer 01,1149,524,1732,2255
2012,Cobb,Powder Springs 1A,1184,1722,2953,3880
2012,Cobb,Powder Springs 2A,339,1278,1632,2234
2012,Cobb,Powder Springs 3A,697,1195,1910,2538
2012,Cobb,Pitner 01,823,365,1231,1671
2012,Cobb,Rocky Mount 01,1604,644,2294,2881
2012,Cobb,Red Rock 01,1403,297,1734,2125
2012,Cobb,Riverside 01,88,918,1008,1450
2012,Cobb,Roswell 01,1473,622,2145,2637
2012,Cobb,Roswell 02,1812,756,2619,3393
2012,Cobb,Sandy Plains 01,1117,629,1789,2339
2012,Cobb,Shallowford Falls 01,1616,694,2357,2950
2012,Cobb,Simpson 01,924,383,1322,1704
2012,Cobb,Sewell Mill 01,1537,671,2267,2913
2012,Cobb,Sewell Mill 03,1352,1211,2646,3838
2012,Cobb,Smyrna 1A,629,1433,2103,3123
2012,Cobb,Smyrna 2A,598,901,1538,2239
2012,Cobb,Smyrna 2B,288,843,1151,1751
2012,Cobb,Smyrna 3A,849,1207,2106,2970
2012,Cobb,Smyrna 4A,1347,1325,2737,3668
2012,Cobb,Smyrna 5A,749,1215,2019,3070
2012,Cobb,Smyrna 6A,1697,1607,3395,4446
2012,Cobb,Smyrna 7A,1406,774,2229,2758
2012,Cobb,Smyrna 7B,1996,2105,4186,5279
2012,Cobb,Sope Creek 01,1142,468,1647,2003
2012,Cobb,Sope Creek 02,1847,1015,2925,3854
2012,Cobb,Sope Creek 03,1397,469,1908,2533
2012,Cobb,Sweetwater 01,952,1008,1978,2460
2012,Cobb,Sweetwater 02,435,1166,1626,2452
2012,Cobb,Sprayberry 01,1084,524,1661,2152
2012,Cobb,Terrell Mill 01,1011,1849,2917,4171
2012,Cobb,Timber Ridge 01,1309,516,1879,2346
2012,Cobb,Tritt 01,1827,708,2589,3206
2012,Cobb,Vaughan 01,1703,451,2198,2777
2012,Cobb,Vinings 01,603,500,1129,1560
2012,Cobb,Vinings 02,1444,1820,3332,4811
2012,Cobb,Vinings 03,1255,1282,2571,3321
2012,Cobb,Vinings 04,1567,738,2346,2904
2012,Cobb,Wade Green 01,1227,714,1992,2624
2012,Cobb,Wade Green 02,735,615,1382,1849
2012,Cobb,Willeo 01,1509,552,2104,2645
