﻿Year,County,PrecinctName,RepVotes,DemVotes,CastedBal,RegVoters
2020,Cobb,Acworth 1A,1919,2037,4030,5458
2020,Cobb,Acworth 1B,1941,1682,3700,5214
2020,Cobb,Acworth 1C,1183,2249,3497,5110
2020,Cobb,Addison 01,930,990,1968,2444
2020,Cobb,Austell 1A,638,2683,3346,5329
2020,Cobb,Bells Ferry 02,1127,1127,2328,3127
2020,Cobb,Bells Ferry 03,2214,2051,4406,6082
2020,Cobb,Big Shanty 01,827,747,1619,2385
2020,Cobb,Big Shanty 02,1231,1229,2509,3236
2020,Cobb,Baker 01,1319,1984,3385,4773
2020,Cobb,Birney 01,641,1152,1830,2727
2020,Cobb,Birney 02,929,1970,2949,3894
2020,Cobb,Bryant 01,101,1377,1494,2142
2020,Cobb,Bryant 02,244,2816,3110,6209
2020,Cobb,Blackwell 01,908,1113,2077,2698
2020,Cobb,Chattahoochee 01,986,2860,3960,5969
2020,Cobb,Cheatham Hill 02,1408,1062,2534,3085
2020,Cobb,Cheatham Hill 03,1599,1645,3329,4029
2020,Cobb,Chalker 01,1349,2467,3907,6065
2020,Cobb,Clarkdale 01,478,764,1264,1937
2020,Cobb,Clarkdale 02,1030,2596,3686,5372
2020,Cobb,Cooper 01,694,2611,3352,5252
2020,Cobb,Chestnut Ridge 01,1446,1215,2722,3162
2020,Cobb,Dickerson 01,1209,1149,2419,2828
2020,Cobb,Dobbins 01,366,1043,1441,3024
2020,Cobb,Dobbins 02,611,1796,2465,3984
2020,Cobb,Dowell 01,1071,1385,2530,3197
2020,Cobb,Dodgen 01,921,810,1789,2100
2020,Cobb,Durham 01,2283,1179,3533,4256
2020,Cobb,Davis 01,857,807,1713,2093
2020,Cobb,Eastside 01,1335,1200,2594,3040
2020,Cobb,Eastside 02,1698,1601,3401,4074
2020,Cobb,Elizabeth 01,722,1721,2501,4065
2020,Cobb,Elizabeth 02,1022,864,1923,2434
2020,Cobb,Elizabeth 03,1226,1014,2291,2767
2020,Cobb,Elizabeth 04,715,1317,2088,3011
2020,Cobb,Elizabeth 05,1103,1168,2321,2884
2020,Cobb,East Piedmont 01,782,1077,1900,2627
2020,Cobb,Fair Oaks 02,956,2551,3560,5779
2020,Cobb,Fair Oaks 04,856,1825,2744,5322
2020,Cobb,Fullers Park 01,1436,1374,2879,3452
2020,Cobb,Ford 01,1664,866,2584,3161
2020,Cobb,Frey 01,1287,732,2055,2582
2020,Cobb,Garrison Mill 01,1211,1105,2367,2872
2020,Cobb,Gritters 01,1578,1359,3033,4033
2020,Cobb,Harmony-Leland 01,705,3817,4595,6394
2020,Cobb,Harrison 01,1665,816,2545,3122
2020,Cobb,Hightower 01,1858,1640,3600,4262
2020,Cobb,Hayes 01,2014,1216,3296,4111
2020,Cobb,Kennesaw 1A,750,876,1679,2499
2020,Cobb,Kennesaw 2A,1329,1379,2768,3944
2020,Cobb,Kennesaw 3A,1554,2665,4331,6477
2020,Cobb,Kennesaw 4A,1251,1396,2717,3783
2020,Cobb,Kennesaw 5A,1936,2509,4532,5855
2020,Cobb,Kell 01,853,690,1592,2006
2020,Cobb,Kemp 01,1023,546,1611,1960
2020,Cobb,Kemp 02,1765,1429,3267,4049
2020,Cobb,Kemp 03,2187,1005,3273,3955
2020,Cobb,Lassiter 01,1613,1316,3021,3647
2020,Cobb,Lindley 01,769,2942,3788,4797
2020,Cobb,Lost Mountain 01,1711,1259,3035,3604
2020,Cobb,Lost Mountain 02,2305,1227,3597,4121
2020,Cobb,Lost Mountain 03,2588,1735,4408,5387
2020,Cobb,Lost Mountain 04,1313,794,2150,2629
2020,Cobb,Mableton 01,1045,2498,3622,5127
2020,Cobb,Mableton 02,534,1416,1983,3330
2020,Cobb,Mableton 03,890,1247,2186,3010
2020,Cobb,Mableton 04,549,710,1289,1581
2020,Cobb,Mabry 01,833,538,1412,1656
2020,Cobb,Macland 01,759,2183,2984,4213
2020,Cobb,Murdock 01,1722,1598,3414,4059
2020,Cobb,McEachern 01,1053,1636,2720,3549
2020,Cobb,Mccleskey 01,810,609,1459,1736
2020,Cobb,Mcclure 01,1593,991,2640,3290
2020,Cobb,Marietta 1A,706,1624,2413,4468
2020,Cobb,Marietta 2A,943,755,1756,2059
2020,Cobb,Marietta 2B,1145,1921,3146,4447
2020,Cobb,Marietta 3A,1455,1735,3272,4388
2020,Cobb,Marietta 3B,241,1119,1379,2218
2020,Cobb,Marietta 4A,1080,568,1711,1956
2020,Cobb,Marietta 4B,683,831,1565,2056
2020,Cobb,Marietta 4C,1294,950,2297,2781
2020,Cobb,Marietta 5A,589,1479,2110,3324
2020,Cobb,Marietta 5B,385,1240,1669,3084
2020,Cobb,Marietta 6A,374,1184,1580,2647
2020,Cobb,Marietta 6B,970,1283,2325,2910
2020,Cobb,Marietta 7A,359,1461,1860,3745
2020,Cobb,Mars Hill 01,1983,743,2785,3633
2020,Cobb,Mars Hill 02,1119,943,2133,2916
2020,Cobb,Mt Bethel 01,1760,1626,3488,4125
2020,Cobb,Mt Bethel 03,1299,1344,2701,3294
2020,Cobb,Mt Bethel 04,1305,1094,2468,2981
2020,Cobb,North Cobb 01,796,864,1704,2317
2020,Cobb,Nickajack 01,781,2706,3552,4889
2020,Cobb,Norton Park 01,1142,1980,3225,4922
2020,Cobb,Nicholson 01,969,843,1867,2455
2020,Cobb,Oakdale 01,1130,1891,3091,3944
2020,Cobb,Oregon 01,767,567,1365,1614
2020,Cobb,Oregon 02,989,2812,3880,5671
2020,Cobb,Oregon 03,868,2274,3210,5713
2020,Cobb,Oregon 04,895,2325,3269,4673
2020,Cobb,Oregon 05,1217,1835,3111,3846
2020,Cobb,Pebblebrook 01,629,2673,3361,5218
2020,Cobb,Powers Ferry 01,1213,1287,2582,3504
2020,Cobb,Pine Mountain 01,1779,1041,2879,3491
2020,Cobb,Pine Mountain 02,1750,859,2660,3127
2020,Cobb,Post Oak 01,1680,1289,3030,3660
2020,Cobb,Pope 01,1349,1173,2596,3153
2020,Cobb,Palmer 01,1138,859,2061,2760
2020,Cobb,Powders Springs 1A,987,2592,3657,4755
2020,Cobb,Powders Springs 2A,463,1806,2322,3536
2020,Cobb,Powders Springs 3A,731,1972,2750,3991
2020,Cobb,Pitner 01,1111,966,2144,2814
2020,Cobb,Rocky Mount 01,1441,1234,2742,3390
2020,Cobb,Riverside 01,119,997,1137,2133
2020,Cobb,Roswell 01,2387,2141,4622,5374
2020,Cobb,Roswell 02,1545,1518,3147,3701
2020,Cobb,Sandy Plains 01,1117,1192,2383,2933
2020,Cobb,Shallowford Falls 01,1487,1294,2866,3387
2020,Cobb,Simpson 01,738,756,1529,1868
2020,Cobb,Sewell Mill 01,1334,1481,2872,3493
2020,Cobb,Sewell Mill 03,1249,1859,3198,4759
2020,Cobb,Smyrna 1A,554,1931,2539,4152
2020,Cobb,Smyrna 2A,849,2791,3737,5539
2020,Cobb,Smyrna 3A,925,2208,3227,4573
2020,Cobb,Smyrna 3B,750,1166,1964,2496
2020,Cobb,Smyrna 4A,1853,2815,4806,5842
2020,Cobb,Smyrna 5A,811,2006,2894,4319
2020,Cobb,Smyrna 6A,1706,2808,4647,5936
2020,Cobb,Smyrna 7A,1367,3785,5267,6378
2020,Cobb,Sope Creek 01,970,835,1855,2163
2020,Cobb,Sope Creek 02,1632,1963,3702,4729
2020,Cobb,Sope Creek 03,1213,1089,2335,2886
2020,Cobb,Sweetwater 01,867,1439,2352,3235
2020,Cobb,Sweetwater 02,444,1517,2002,3367
2020,Cobb,Terrell Mill 01,1030,2477,3604,5816
2020,Cobb,Timber Ridge 01,1025,1016,2091,2448
2020,Cobb,Vaughan 01,1630,877,2579,3146
2020,Cobb,Vinings 01,700,1598,2362,3260
2020,Cobb,Vinings 02,1441,2962,4506,6400
2020,Cobb,Vinings 03,1002,2236,3298,4407
2020,Cobb,Vinings 04,1296,1350,2692,3405
2020,Cobb,Wade Green 02,1605,1859,3559,4718
2020,Cobb,Willeo 01,1270,1079,2416,2836
