﻿Year,County,PrecinctName,RepVotes,DemVotes,CastedBal,RegisteredVoters
2020,Cherokee,Air Acres,1512,943,2521,3050
2020,Cherokee,Arnold Mill,2796,1099,3991,4884
2020,Cherokee,Avery,2302,580,2935,3592
2020,Cherokee,Ball Ground,2549,489,3099,4065
2020,Cherokee,Bascomb,2158,981,3209,4115
2020,Cherokee,Bells,2262,1816,4183,5906
2020,Cherokee,Booth,2049,1009,3135,3899
2020,Cherokee,Bradshaw,2674,958,3712,4491
2020,Cherokee,Bridgemill,2996,1123,4194,5113
2020,Cherokee,Canton,3814,1894,5798,8213
2020,Cherokee,Carmel,1723,1316,3109,4581
2020,Cherokee,Clayton,2864,790,3740,4906
2020,Cherokee,Conns Creek,616,64,686,895
2020,Cherokee,Deer Run,1488,836,2386,3035
2020,Cherokee,Dixie,2313,1607,4026,5733
2020,Cherokee,Freehome,3596,1016,4715,5790
2020,Cherokee,Hickory Flat,4012,1813,5946,7334
2020,Cherokee,Hightower,2308,438,2795,3483
2020,Cherokee,Hillside,1799,735,2576,3155
2020,Cherokee,Holly Springs,1579,579,2231,3262
2020,Cherokee,Kellogg,2380,1268,3738,5482
2020,Cherokee,Liberty,3870,1996,6026,8350
2020,Cherokee,Little River,3584,2310,6023,7480
2020,Cherokee,Macedonia,3016,889,3983,4853
2020,Cherokee,Mountain Road,1755,653,2463,3078
2020,Cherokee,Neese,3295,2179,5617,7642
2020,Cherokee,Oak Grove,1847,770,2669,3749
2020,Cherokee,R M Moore,2237,332,2623,3468
2020,Cherokee,R T Jones,1021,513,1567,2525
2020,Cherokee,Rose Creek,1971,922,2968,3748
2020,Cherokee,Salacoa,454,69,530,727
2020,Cherokee,Sixies,1787,708,2545,3101
2020,Cherokee,Sutallee,1696,324,2054,2540
2020,Cherokee,Teasley,4326,1663,6120,7981
2020,Cherokee,Toonigh,3429,1599,5138,6641
2020,Cherokee,Union Hill,2693,712,3468,4207
2020,Cherokee,Univeter,3167,863,4107,5434
2020,Cherokee,Victoria,1677,599,2329,3132
2020,Cherokee,Waleska,1709,524,2262,2875
2020,Cherokee,Wildcat,1756,613,2417,3215
2020,Cherokee,Woodlands,1553,1078,2696,3456
2020,Cherokee,Woodstock,2954,2124,5209,7345
