﻿Year,County,PrecinctName,RepVotes,DemVotes,CastedBal,RegisteredVoters
2016,Clayton,Ellenwood,219,3174,3500,4498
2016,Clayton,Forest Park 1,267,1014,1334,2299
2016,Clayton,Forest Park 2,184,955,1187,1828
2016,Clayton,Forest Park 3,222,880,1131,1763
2016,Clayton,Forest Park 4,282,573,890,1248
2016,Clayton,Forest Park 5,265,1263,1577,2566
2016,Clayton,Forest Park 6,209,460,697,1022
2016,Clayton,Jonesboro 1,207,2176,2451,3585
2016,Clayton,Jonesboro 2,108,2024,2187,3230
2016,Clayton,Jonesboro 3,386,1795,2258,3049
2016,Clayton,Jonesboro 4,172,811,1016,1636
2016,Clayton,Jonesboro 5,271,825,1149,1539
2016,Clayton,Jonesboro 6,844,846,1764,2155
2016,Clayton,Jonesboro 7,329,1394,1777,2359
2016,Clayton,Jonesboro 8,115,1569,1733,2636
2016,Clayton,Jonesboro 9,132,472,628,1068
2016,Clayton,Jonesboro 10,158,1230,1431,2296
2016,Clayton,Jonesboro 11,490,1662,2239,2891
2016,Clayton,Jonesboro 12,109,1331,1475,2145
2016,Clayton,Jonesboro 13,182,950,1161,1457
2016,Clayton,Jonesboro 14,857,1781,2736,3439
2016,Clayton,Jonesboro 15,129,1052,1232,2010
2016,Clayton,Jonesboro 16,127,912,1084,1646
2016,Clayton,Jonesboro 17,165,2161,2402,3541
2016,Clayton,Jonesboro 18,207,1345,1622,2309
2016,Clayton,Lake City,154,1178,1389,2144
2016,Clayton,Lovejoy 1,314,1777,2168,2898
2016,Clayton,Lovejoy 2,197,1421,1665,2342
2016,Clayton,Lovejoy 3,572,2696,3370,4664
2016,Clayton,Lovejoy 4,232,2023,2310,3070
2016,Clayton,Lovejoy 5,147,1367,1564,2221
2016,Clayton,Morrow 1,128,1324,1505,2198
2016,Clayton,Morrow 2,338,678,1052,1500
2016,Clayton,Morrow 3,338,1833,2251,3277
2016,Clayton,Morrow 4,235,731,1007,1482
2016,Clayton,Morrow 5,410,2425,2924,3817
2016,Clayton,Morrow 6,243,1215,1511,2058
2016,Clayton,Morrow 7,164,762,959,1429
2016,Clayton,Morrow 8,115,1473,1657,2182
2016,Clayton,Morrow 9,114,614,760,1059
2016,Clayton,Oak 1,36,1089,1154,1750
2016,Clayton,Oak 2,41,694,760,1282
2016,Clayton,Oak 3,67,1696,1816,2945
2016,Clayton,Oak 4,59,1639,1758,2655
2016,Clayton,Panhandle 2,674,2762,3538,4481
2016,Clayton,Riverdale 1,107,1241,1387,1798
2016,Clayton,Riverdale 2,77,1580,1707,2468
2016,Clayton,Riverdale 3,87,1687,1823,2690
2016,Clayton,Riverdale 4,193,1750,1987,3093
2016,Clayton,Riverdale 5,108,1416,1580,2248
2016,Clayton,Riverdale 6,197,1222,1462,2422
2016,Clayton,Riverdale 7,134,901,1061,1836
2016,Clayton,Riverdale 8,162,1474,1671,2171
2016,Clayton,Riverdale 9,147,1231,1421,2030
2016,Clayton,Riverdale 10,44,1150,1220,2046
2016,Clayton,Riverdale 11,60,990,1068,1449
2016,Clayton,Riverdale 12,115,1526,1677,2244
