﻿Year,County,PrecinctName,RepVotes,DemVotes,CastedBal,RegisteredVoters
2018,Clayton,Ellenwood,186,3542,3743,5565
2018,Clayton,Forest Park 1,222,1057,1299,3265
2018,Clayton,Forest Park 2,160,1034,1203,2401
2018,Clayton,Forest Park 3,193,923,1130,2491
2018,Clayton,Forest Park 4,249,551,806,1578
2018,Clayton,Forest Park 5,232,1257,1505,3543
2018,Clayton,Forest Park 6,196,427,632,1274
2018,Clayton,Jonesboro 1,154,2240,2407,4440
2018,Clayton,Jonesboro 2,81,2087,2177,3830
2018,Clayton,Jonesboro 3,341,1816,2167,3684
2018,Clayton,Jonesboro 4,138,819,963,2168
2018,Clayton,Jonesboro 5,227,846,1075,1800
2018,Clayton,Jonesboro 6,779,916,1717,2393
2018,Clayton,Jonesboro 7,315,1407,1731,2863
2018,Clayton,Jonesboro 8,78,1537,1619,3532
2018,Clayton,Jonesboro 9,104,458,566,1529
2018,Clayton,Jonesboro 10,122,1224,1353,3027
2018,Clayton,Jonesboro 11,414,1757,2189,3465
2018,Clayton,Jonesboro 12,81,1350,1433,2709
2018,Clayton,Jonesboro 13,153,1019,1180,1799
2018,Clayton,Jonesboro 14,760,1848,2638,3841
2018,Clayton,Jonesboro 15,103,1014,1124,2647
2018,Clayton,Jonesboro 16,106,1035,1147,2234
2018,Clayton,Jonesboro 17,116,2139,2268,4385
2018,Clayton,Jonesboro 18,168,1407,1582,2933
2018,Clayton,Lake City,146,1154,1306,2692
2018,Clayton,Lovejoy 1,255,1895,2166,3560
2018,Clayton,Lovejoy 2,160,1397,1565,2976
2018,Clayton,Lovejoy 3,490,3147,3654,6368
2018,Clayton,Lovejoy 4,187,2086,2280,3699
2018,Clayton,Lovejoy 5,114,1496,1614,2922
2018,Clayton,Morrow 1,127,1345,1481,2939
2018,Clayton,Morrow 2,320,647,977,1832
2018,Clayton,Morrow 3,305,1891,2215,4229
2018,Clayton,Morrow 4,199,723,935,1833
2018,Clayton,Morrow 5,370,2633,3021,4794
2018,Clayton,Morrow 6,226,1308,1542,2717
2018,Clayton,Morrow 7,152,760,920,1853
2018,Clayton,Morrow 8,112,1597,1713,2734
2018,Clayton,Morrow 9,97,631,731,1366
2018,Clayton,Oak 1,29,1167,1201,2254
2018,Clayton,Oak 2,30,762,797,1695
2018,Clayton,Oak 3,46,1694,1749,3939
2018,Clayton,Oak 4,48,1732,1790,3670
2018,Clayton,Panhandle 2,429,1407,1847,2751
2018,Clayton,Riverdale 1,100,1272,1379,2159
2018,Clayton,Riverdale 2,59,1587,1652,3038
2018,Clayton,Riverdale 3,83,1663,1755,3040
2018,Clayton,Riverdale 4,144,1693,1848,3794
2018,Clayton,Riverdale 5,99,1396,1511,2744
2018,Clayton,Riverdale 6,162,1181,1353,3248
2018,Clayton,Riverdale 7,114,958,1078,2583
2018,Clayton,Riverdale 8,135,1515,1661,2574
2018,Clayton,Riverdale 9,114,1241,1362,2417
2018,Clayton,Riverdale 10,21,1121,1145,2634
2018,Clayton,Riverdale 11,49,974,1028,1679
2018,Clayton,Riverdale 12,91,1509,1609,2766
